\relax 
\providecommand\hyper@newdestlabel[2]{}
\providecommand\HyperFirstAtBeginDocument{\AtBeginDocument}
\HyperFirstAtBeginDocument{\ifx\hyper@anchor\@undefined
\global\let\oldcontentsline\contentsline
\gdef\contentsline#1#2#3#4{\oldcontentsline{#1}{#2}{#3}}
\global\let\oldnewlabel\newlabel
\gdef\newlabel#1#2{\newlabelxx{#1}#2}
\gdef\newlabelxx#1#2#3#4#5#6{\oldnewlabel{#1}{{#2}{#3}}}
\AtEndDocument{\ifx\hyper@anchor\@undefined
\let\contentsline\oldcontentsline
\let\newlabel\oldnewlabel
\fi}
\fi}
\global\let\hyper@last\relax 
\gdef\HyperFirstAtBeginDocument#1{#1}
\providecommand\HyField@AuxAddToFields[1]{}
\providecommand\HyField@AuxAddToCoFields[2]{}
\citation{bibid}
\citation{bibid}
\citation{Prusinkiewicz1986}
\citation{Adam2014}
\citation{Collins2009}
\citation{Jaques2016}
\citation{Smith2011}
\citation{Kathiresan2015}
\@writefile{toc}{\contentsline {section}{\numberline {1}Introdu\IeC {\c c}\IeC {\~a}o}{8}{section.1}}
\@writefile{toc}{\contentsline {subsection}{\numberline {1.1}Contexto}{8}{subsection.1.1}}
\@writefile{toc}{\contentsline {subsection}{\numberline {1.2}Objetivo}{8}{subsection.1.2}}
\@writefile{toc}{\contentsline {subsubsection}{\numberline {1.2.1}Objetivos Espec\IeC {\'\i }ficos}{8}{subsubsection.1.2.1}}
\citation{Smith2011}
\citation{Olsen2004}
\@writefile{toc}{\contentsline {section}{\numberline {2}Revis\IeC {\~a}o Bibliogr\IeC {\'a}fica}{10}{section.2}}
\@writefile{toc}{\contentsline {subsection}{\numberline {2.1}Teoria Musical}{10}{subsection.2.1}}
\@writefile{toc}{\contentsline {subsubsection}{\numberline {2.1.1}Sem\IeC {\'\i }nima}{10}{subsubsection.2.1.1}}
\@writefile{toc}{\contentsline {subsubsection}{\numberline {2.1.2}Harmonia}{10}{subsubsection.2.1.2}}
\@writefile{toc}{\contentsline {subsubsection}{\numberline {2.1.3}Melodia}{10}{subsubsection.2.1.3}}
\@writefile{toc}{\contentsline {subsubsection}{\numberline {2.1.4}Arranjo}{10}{subsubsection.2.1.4}}
\@writefile{toc}{\contentsline {subsubsection}{\numberline {2.1.5}Piano Roll}{10}{subsubsection.2.1.5}}
\@writefile{toc}{\contentsline {subsubsection}{\numberline {2.1.6}Partitura}{10}{subsubsection.2.1.6}}
\@writefile{toc}{\contentsline {subsection}{\numberline {2.2}Gera\IeC {\c c}\IeC {\~a}o Procedural}{10}{subsection.2.2}}
\@writefile{lof}{\contentsline {figure}{\numberline {1}{\ignorespaces Modelos de naves espaciais geradas proceduralmente.}}{10}{figure.1}}
\citation{FractalFoundation2009}
\@writefile{lof}{\contentsline {figure}{\numberline {2}{\ignorespaces Cen\IeC {\'a}rio gerado proceduralmente no jogo \textit  {Shattered Planet}.}}{11}{figure.2}}
\@writefile{lof}{\contentsline {figure}{\numberline {3}{\ignorespaces Planeta, terreno e vegeta\IeC {\c c}\IeC {\~a}o gerados proceduralmente no jogo \textit  {No Man's Sky }.}}{11}{figure.3}}
\citation{meduna2014formal}
\citation{Sipser2007}
\@writefile{toc}{\contentsline {subsubsection}{\numberline {2.2.1}Fractais}{12}{subsubsection.2.2.1}}
\@writefile{lof}{\contentsline {figure}{\numberline {4}{\ignorespaces Fractal gerado pelo Conjunto de Mandelbrot.}}{12}{figure.4}}
\@writefile{toc}{\contentsline {subsection}{\numberline {2.3}Linguagem Formal e Gram\IeC {\'a}tica Formal}{12}{subsection.2.3}}
\citation{Antonelli2005}
\@writefile{toc}{\contentsline {subsubsection}{\numberline {2.3.1}Sistemas Lindenmayer}{13}{subsubsection.2.3.1}}
\@writefile{toc}{\contentsline {paragraph}{\numberline {2.3.1.1}Livre-de-Contexto}{13}{paragraph.2.3.1.1}}
\@writefile{toc}{\contentsline {paragraph}{\numberline {2.3.1.2}Sens\IeC {\'\i }vel-ao-Contexto}{13}{paragraph.2.3.1.2}}
\citation{bibid}
\citation{bibid}
\@writefile{toc}{\contentsline {paragraph}{\numberline {2.3.1.3}L-System Determin\IeC {\'\i }stico}{14}{paragraph.2.3.1.3}}
\@writefile{toc}{\contentsline {paragraph}{\numberline {2.3.1.4}L-System Estoc\IeC {\'a}stico}{14}{paragraph.2.3.1.4}}
\@writefile{toc}{\contentsline {paragraph}{\numberline {2.3.1.5}Gr\IeC {\'a}fico de Tartaruga}{14}{paragraph.2.3.1.5}}
\@writefile{toc}{\contentsline {subsection}{\numberline {2.4}Musical Instrument Digital Interface}{14}{subsection.2.4}}
\@writefile{toc}{\contentsline {subsubsection}{\numberline {2.4.1}Arquivo MIDI}{14}{subsubsection.2.4.1}}
\@writefile{lot}{\contentsline {table}{\numberline {1}{\ignorespaces Estrutura generalizada do arquivo MIDI.}}{14}{table.1}}
\@writefile{lot}{\contentsline {table}{\numberline {2}{\ignorespaces Estrutura do arquivo MIDI com v\IeC {\'a}rios blocos}}{15}{table.2}}
\@writefile{toc}{\contentsline {paragraph}{\numberline {2.4.1.1}Bloco de Cabe\IeC {\c c}alho}{15}{paragraph.2.4.1.1}}
\@writefile{lot}{\contentsline {table}{\numberline {3}{\ignorespaces Estrutura do Bloco de Cabe\IeC {\c c}alho do arquivo MIDI.}}{15}{table.3}}
\@writefile{lot}{\contentsline {table}{\numberline {4}{\ignorespaces Parte de divis\IeC {\~a}o de tempo do Bloco de Cabe\IeC {\c c}alho do arquivo MIDI}}{16}{table.4}}
\@writefile{toc}{\contentsline {paragraph}{\numberline {2.4.1.2}Bloco de Faixa}{16}{paragraph.2.4.1.2}}
\@writefile{lot}{\contentsline {table}{\numberline {5}{\ignorespaces Estrutura do Bloco de Faixa do arquivo MIDI}}{16}{table.5}}
\citation{Gupta2016}
\@writefile{lot}{\contentsline {table}{\numberline {6}{\ignorespaces N\IeC {\'u}mero correspondente a cada nota musical e sua oitava em um MIDI}}{17}{table.6}}
\@writefile{toc}{\contentsline {subsection}{\numberline {2.5}Pulse-Code Modulation}{17}{subsection.2.5}}
\@writefile{toc}{\contentsline {subsection}{\numberline {2.6}PortAudio}{18}{subsection.2.6}}
\@writefile{toc}{\contentsline {subsection}{\numberline {2.7}Simple and Fast Multimedia Library}{18}{subsection.2.7}}
\@writefile{toc}{\contentsline {subsection}{\numberline {2.8}Trabalhos Relacionados}{18}{subsection.2.8}}
\@writefile{toc}{\contentsline {subsubsection}{\numberline {2.8.1}LMUSe}{18}{subsubsection.2.8.1}}
\@writefile{toc}{\contentsline {subsubsection}{\numberline {2.8.2}lsys2midi}{18}{subsubsection.2.8.2}}
\citation{Prusinkiewicz1986}
\@writefile{toc}{\contentsline {section}{\numberline {3}Desenvolvimento}{19}{section.3}}
\@writefile{toc}{\contentsline {subsection}{\numberline {3.1}Estudo de L-Systems}{19}{subsection.3.1}}
\@writefile{toc}{\contentsline {subsection}{\numberline {3.2}Algoritmo de Reprodu\IeC {\c c}\IeC {\~a}o}{19}{subsection.3.2}}
\@writefile{toc}{\contentsline {subsection}{\numberline {3.3}Algoritmo de Piano Roll}{20}{subsection.3.3}}
\@writefile{toc}{\contentsline {subsection}{\numberline {3.4}Avalia\IeC {\c c}\IeC {\~a}o Musical}{20}{subsection.3.4}}
\@writefile{toc}{\contentsline {subsubsection}{\numberline {3.4.1}Compara\IeC {\c c}\IeC {\~a}o com M\IeC {\'u}sicas}{20}{subsubsection.3.4.1}}
\@writefile{toc}{\contentsline {subsubsection}{\numberline {3.4.2}Compara\IeC {\c c}\IeC {\~a}o de Resultados}{20}{subsubsection.3.4.2}}
\@writefile{toc}{\contentsline {subsection}{\numberline {3.5}Algoritmo de Altera\IeC {\c c}\IeC {\~a}o Musical}{20}{subsection.3.5}}
\@writefile{toc}{\contentsline {subsubsection}{\numberline {3.5.1}Avalia\IeC {\c c}\IeC {\~a}o do Algoritmo de Altera\IeC {\c c}\IeC {\~a}o Musical}{21}{subsubsection.3.5.1}}
\@writefile{toc}{\contentsline {section}{\numberline {4}Conclus\IeC {\~o}es}{22}{section.4}}
\citation{a1studmuffin}
\citation{xaine}
\bibdata{./references}
\bibcite{Adam2014}{{1}{2014}{{Adam et~al.}}{{}}}
\bibcite{Antonelli2005}{{2}{2005}{{Antonelli}}{{}}}
\bibcite{Collins2009}{{3}{2009}{{Collins}}{{}}}
\bibcite{a1studmuffin}{{4}{2018}{{Davies, Michael}}{{}}}
\bibcite{FractalFoundation2009}{{5}{2009}{{Fractal Foundation}}{{}}}
\bibcite{Gupta2016}{{6}{2016}{{Gupta et~al.}}{{}}}
\bibcite{Jaques2016}{{7}{2016}{{Jaques et~al.}}{{}}}
\bibcite{Kathiresan2015}{{8}{2015}{{Kathiresan}}{{}}}
\bibcite{xaine}{{9}{2017}{{Khlorik, Xaine}}{{}}}
\bibcite{meduna2014formal}{{10}{2014}{{Meduna}}{{}}}
\bibcite{Olsen2004}{{11}{2004}{{Olsen}}{{}}}
\bibcite{Prusinkiewicz1986}{{12}{1986}{{Prusinkiewicz}}{{}}}
\bibcite{Sipser2007}{{13}{2007}{{Sipser}}{{}}}
\bibcite{Smith2011}{{14}{2011}{{Smith et~al.}}{{}}}
\bibstyle{apalike}
\@writefile{toc}{\contentsline {section}{\numberline {5}Refer\IeC {\^e}ncias}{23}{section.5}}
