\relax 
\providecommand\hyper@newdestlabel[2]{}
\providecommand\BKM@entry[2]{}
\providecommand*{\memsetcounter}[2]{}
\providecommand\HyperFirstAtBeginDocument{\AtBeginDocument}
\HyperFirstAtBeginDocument{\ifx\hyper@anchor\@undefined
\global\let\oldcontentsline\contentsline
\gdef\contentsline#1#2#3#4{\oldcontentsline{#1}{#2}{#3}}
\global\let\oldnewlabel\newlabel
\gdef\newlabel#1#2{\newlabelxx{#1}#2}
\gdef\newlabelxx#1#2#3#4#5#6{\oldnewlabel{#1}{{#2}{#3}}}
\AtEndDocument{\ifx\hyper@anchor\@undefined
\let\contentsline\oldcontentsline
\let\newlabel\oldnewlabel
\fi}
\fi}
\global\let\hyper@last\relax 
\gdef\HyperFirstAtBeginDocument#1{#1}
\providecommand\HyField@AuxAddToFields[1]{}
\providecommand\HyField@AuxAddToCoFields[2]{}
\catcode `:\active 
\catcode `;\active 
\catcode `!\active 
\catcode `?\active 
\catcode `"\active 
\catcode `<\active 
\catcode `>\active 
\@nameuse{es@quoting}
\citation{abnt-url-package=url}
\@writefile{toc}{\changetocdepth  {4}}
\select@language{brazil}
\@writefile{toc}{\select@language{brazil}}
\@writefile{lof}{\select@language{brazil}}
\@writefile{lot}{\select@language{brazil}}
\BKM@entry{id=1,dest={6368617074657262312E30},srcline={142}}{466F6C686120646520726F73746F}
\BKM@entry{id=2,dest={6368617074657262322E30},srcline={146}}{526573756D6F}
\BKM@entry{id=3,dest={6368617074657262332E30},srcline={157}}{4162737472616374}
\select@language{english}
\@writefile{toc}{\select@language{english}}
\@writefile{lof}{\select@language{english}}
\@writefile{lot}{\select@language{english}}
\BKM@entry{id=4,dest={6C6F662E30},srcline={166}}{4C6973746120646520696C75737472615C3334375C3336356573}
\BKM@entry{id=5,dest={73656374696F6E2A2E34},srcline={168}}{4C6973746120646520696C75737472615C3334375C3336356573}
\select@language{brazil}
\@writefile{toc}{\select@language{brazil}}
\@writefile{lof}{\select@language{brazil}}
\@writefile{lot}{\select@language{brazil}}
\@writefile{toc}{\setlength  {\cftchapterindent }{\cftlastnumwidth } \setlength  {\cftchapternumwidth }{2em}}
\@writefile{toc}{\contentsline {chapter}{Lista de ilustra\c {c}\~{o}es}{4}{section*.4}}
\BKM@entry{id=6,dest={6C6F742E30},srcline={172}}{4C6973746120646520746162656C6173}
\BKM@entry{id=7,dest={73656374696F6E2A2E35},srcline={174}}{4C6973746120646520746162656C6173}
\@writefile{toc}{\setlength  {\cftchapterindent }{\cftlastnumwidth } \setlength  {\cftchapternumwidth }{2em}}
\@writefile{toc}{\contentsline {chapter}{Lista de tabelas}{5}{section*.5}}
\BKM@entry{id=8,dest={6368617074657262352E30},srcline={177}}{4C69737461206465206162726576696174757261732065207369676C6173}
\@writefile{toc}{\setlength  {\cftchapterindent }{\cftlastnumwidth } \setlength  {\cftchapternumwidth }{2em}}
\BKM@entry{id=9,dest={746F632E30},srcline={187}}{53756D5C33343172696F}
\BKM@entry{id=10,dest={73656374696F6E2A2E38},srcline={189}}{53756D5C33343172696F}
\@writefile{toc}{\setlength  {\cftchapterindent }{\cftlastnumwidth } \setlength  {\cftchapternumwidth }{2em}}
\@writefile{toc}{\contentsline {chapter}{Sum\'ario}{7}{section*.8}}
\BKM@entry{id=11,dest={636861707465722E31},srcline={194}}{496E74726F64755C3334375C3334336F}
\BKM@entry{id=12,dest={73656374696F6E2E312E31},srcline={196}}{436F6E746578746F}
\citation{Freiknecht2017}
\citation{Prusinkiewicz1986}
\citation{Adam2014}
\citation{Manousakis2006}
\citation{Jaques2016}
\citation{Kathiresan2015}
\BKM@entry{id=13,dest={73656374696F6E2E312E32},srcline={205}}{4F626A657469766F20676572616C}
\@writefile{toc}{\setlength  {\cftchapterindent }{0em} \setlength  {\cftchapternumwidth }{\cftlastnumwidth }}
\@writefile{toc}{\contentsline {chapter}{\chapternumberline {1}\MakeTextUppercase  {Introdu\IeC {\c c}\IeC {\~a}o}}{9}{chapter.1}}
\@writefile{toc}{\contentsline {section}{\numberline {1.1}Contexto}{9}{section.1.1}}
\@writefile{toc}{\contentsline {section}{\numberline {1.2}Objetivo geral}{9}{section.1.2}}
\BKM@entry{id=14,dest={73756273656374696F6E2E312E322E31},srcline={213}}{4F626A657469766F732065737065635C3335356669636F73}
\@writefile{toc}{\contentsline {subsection}{\numberline {1.2.1}Objetivos espec\IeC {\'\i }ficos}{10}{subsection.1.2.1}}
\BKM@entry{id=15,dest={636861707465722E32},srcline={228}}{52657669735C3334336F204269626C696F67725C33343166696361}
\BKM@entry{id=16,dest={73656374696F6E2E322E31},srcline={230}}{46756E64616D656E746F73206D75736963616973}
\citation{med1996teoria}
\@writefile{toc}{\setlength  {\cftchapterindent }{0em} \setlength  {\cftchapternumwidth }{\cftlastnumwidth }}
\@writefile{toc}{\contentsline {chapter}{\chapternumberline {2}\MakeTextUppercase  {Revis\IeC {\~a}o Bibliogr\IeC {\'a}fica}}{11}{chapter.2}}
\@writefile{toc}{\contentsline {section}{\numberline {2.1}Fundamentos musicais}{11}{section.2.1}}
\BKM@entry{id=17,dest={73756273656374696F6E2E322E312E31},srcline={254}}{4E6F746173206D75736963616973}
\BKM@entry{id=18,dest={73756273656374696F6E2E322E312E32},srcline={266}}{457363616C6173}
\BKM@entry{id=19,dest={73756273756273656374696F6E2E322E312E322E31},srcline={270}}{457363616C61206D61696F72206E61747572616C}
\@writefile{toc}{\contentsline {subsection}{\numberline {2.1.1}Notas musicais}{12}{subsection.2.1.1}}
\@writefile{toc}{\contentsline {subsection}{\numberline {2.1.2}Escalas}{12}{subsection.2.1.2}}
\@writefile{toc}{\contentsline {subsubsection}{\numberline {2.1.2.1}Escala maior natural}{12}{subsubsection.2.1.2.1}}
\BKM@entry{id=20,dest={73756273756273656374696F6E2E322E312E322E32},srcline={311}}{457363616C61206D656E6F72206E61747572616C}
\@writefile{lof}{\contentsline {figure}{\numberline {1}{\ignorespaces Escala maior natural de C (d\IeC {\'o})}}{13}{figure.2.1}}
\newlabel{esc:CMaior}{{\M@TitleReference {1}{Escala maior natural de C (d\IeC {\'o})}}{13}{Escala maior natural de C (dó)}{figure.2.1}{}}
\@writefile{lof}{\contentsline {figure}{\numberline {2}{\ignorespaces Escala maior natural de G (sol)}}{13}{figure.2.2}}
\newlabel{esc:GMaior}{{\M@TitleReference {2}{Escala maior natural de G (sol)}}{13}{Escala maior natural de G (sol)}{figure.2.2}{}}
\@writefile{lof}{\contentsline {figure}{\numberline {3}{\ignorespaces Escala maior natural de D (r\IeC {\'e})}}{13}{figure.2.3}}
\newlabel{esc:DMaior}{{\M@TitleReference {3}{Escala maior natural de D (r\IeC {\'e})}}{13}{Escala maior natural de D (ré)}{figure.2.3}{}}
\@writefile{toc}{\contentsline {subsubsection}{\numberline {2.1.2.2}Escala menor natural}{13}{subsubsection.2.1.2.2}}
\BKM@entry{id=21,dest={73756273756273656374696F6E2E322E312E322E33},srcline={337}}{457363616C61206D656E6F72206861726D5C3336346E696361}
\BKM@entry{id=22,dest={73756273756273656374696F6E2E322E312E322E34},srcline={353}}{457363616C61206D656E6F72206D656C5C33363364696361}
\@writefile{lof}{\contentsline {figure}{\numberline {4}{\ignorespaces Escala menor natural de A (l\IeC {\'a})}}{14}{figure.2.4}}
\newlabel{esc:AMenor}{{\M@TitleReference {4}{Escala menor natural de A (l\IeC {\'a})}}{14}{Escala menor natural de A (lá)}{figure.2.4}{}}
\@writefile{lof}{\contentsline {figure}{\numberline {5}{\ignorespaces Escala menor natural de E (mi)}}{14}{figure.2.5}}
\newlabel{esc:EMenor}{{\M@TitleReference {5}{Escala menor natural de E (mi)}}{14}{Escala menor natural de E (mi)}{figure.2.5}{}}
\@writefile{toc}{\contentsline {subsubsection}{\numberline {2.1.2.3}Escala menor harm\IeC {\^o}nica}{14}{subsubsection.2.1.2.3}}
\@writefile{lof}{\contentsline {figure}{\numberline {6}{\ignorespaces Escala menor harm\IeC {\^o}nica de A (l\IeC {\'a})}}{14}{figure.2.6}}
\newlabel{esc:AHarmonica}{{\M@TitleReference {6}{Escala menor harm\IeC {\^o}nica de A (l\IeC {\'a})}}{14}{Escala menor harmônica de A (lá)}{figure.2.6}{}}
\@writefile{toc}{\contentsline {subsubsection}{\numberline {2.1.2.4}Escala menor mel\IeC {\'o}dica}{14}{subsubsection.2.1.2.4}}
\BKM@entry{id=23,dest={73756273656374696F6E2E322E312E33},srcline={369}}{4D656C6F646961}
\BKM@entry{id=24,dest={73756273656374696F6E2E322E312E34},srcline={373}}{4861726D6F6E6961}
\BKM@entry{id=25,dest={73756273756273656374696F6E2E322E312E342E31},srcline={377}}{41636F72646573}
\@writefile{lof}{\contentsline {figure}{\numberline {7}{\ignorespaces Escala menor mel\IeC {\'o}dica de A (l\IeC {\'a})}}{15}{figure.2.7}}
\newlabel{esc:AMelodica}{{\M@TitleReference {7}{Escala menor mel\IeC {\'o}dica de A (l\IeC {\'a})}}{15}{Escala menor melódica de A (lá)}{figure.2.7}{}}
\@writefile{toc}{\contentsline {subsection}{\numberline {2.1.3}Melodia}{15}{subsection.2.1.3}}
\@writefile{toc}{\contentsline {subsection}{\numberline {2.1.4}Harmonia}{15}{subsection.2.1.4}}
\@writefile{toc}{\contentsline {subsubsection}{\numberline {2.1.4.1}Acordes}{15}{subsubsection.2.1.4.1}}
\BKM@entry{id=26,dest={73756273656374696F6E2E322E312E35},srcline={421}}{5269746D6F}
\@writefile{lot}{\contentsline {table}{\numberline {1}{\ignorespaces Acordes tr\IeC {\'\i }ades formados pela escala maior de C}}{16}{table.2.1}}
\newlabel{tab:acordesCMaior}{{\M@TitleReference {1}{Acordes tr\IeC {\'\i }ades formados pela escala maior de C}}{16}{Acordes tríades formados pela escala maior de C}{table.2.1}{}}
\@writefile{lot}{\contentsline {table}{\numberline {2}{\ignorespaces Acordes tr\IeC {\'\i }ades formados pela escala maior de C}}{16}{table.2.2}}
\newlabel{tab:acordesGHarmonico}{{\M@TitleReference {2}{Acordes tr\IeC {\'\i }ades formados pela escala maior de C}}{16}{Acordes tríades formados pela escala maior de C}{table.2.2}{}}
\@writefile{toc}{\contentsline {subsection}{\numberline {2.1.5}Ritmo}{16}{subsection.2.1.5}}
\BKM@entry{id=27,dest={73756273656374696F6E2E322E312E36},srcline={439}}{44696E5C3334326D696361}
\@writefile{lof}{\contentsline {figure}{\numberline {8}{\ignorespaces Divis\IeC {\~a}o de unidades de tempo e suas representa\IeC {\c c}\IeC {\~o}es gr\IeC {\'a}ficas, usadas em m\IeC {\'u}sicas}}{17}{figure.2.8}}
\newlabel{fig:ritmo}{{\M@TitleReference {8}{Divis\IeC {\~a}o de unidades de tempo e suas representa\IeC {\c c}\IeC {\~o}es gr\IeC {\'a}ficas, usadas em m\IeC {\'u}sicas}}{17}{Divisão de unidades de tempo e suas representações gráficas, usadas em músicas}{figure.2.8}{}}
\@writefile{toc}{\contentsline {subsection}{\numberline {2.1.6}Din\IeC {\^a}mica}{17}{subsection.2.1.6}}
\@writefile{lot}{\contentsline {table}{\numberline {3}{\ignorespaces N\IeC {\'\i }veis de intensidade da din\IeC {\^a}mica musical}}{17}{table.2.3}}
\newlabel{tab:dinamica}{{\M@TitleReference {3}{N\IeC {\'\i }veis de intensidade da din\IeC {\^a}mica musical}}{17}{Níveis de intensidade da dinâmica musical}{table.2.3}{}}
\BKM@entry{id=28,dest={73656374696F6E2E322E32},srcline={468}}{476572615C3334375C3334336F2050726F6365647572616C}
\citation{Smith2011}
\citation{Hendrikx2013}
\citation{a1studmuffin}
\@writefile{toc}{\contentsline {section}{\numberline {2.2}Gera\IeC {\c c}\IeC {\~a}o Procedural}{18}{section.2.2}}
\@writefile{lof}{\contentsline {figure}{\numberline {9}{\ignorespaces Modelos de naves espaciais geradas proceduralmente}}{18}{figure.2.9}}
\newlabel{fig:space}{{\M@TitleReference {9}{Modelos de naves espaciais geradas proceduralmente}}{18}{Modelos de naves espaciais geradas proceduralmente}{figure.2.9}{}}
\citation{tanya2014}
\citation{Olsen2004}
\citation{Xaine2017}
\BKM@entry{id=29,dest={73756273656374696F6E2E322E322E31},srcline={519}}{4672616374616973}
\citation{FractalFoundation2009}
\@writefile{lof}{\contentsline {figure}{\numberline {10}{\ignorespaces Cen\IeC {\'a}rio gerado proceduralmente no jogo Shattered Planet}}{19}{figure.2.10}}
\newlabel{fig:kit}{{\M@TitleReference {10}{Cen\IeC {\'a}rio gerado proceduralmente no jogo Shattered Planet}}{19}{Cenário gerado proceduralmente no jogo Shattered Planet}{figure.2.10}{}}
\@writefile{lof}{\contentsline {figure}{\numberline {11}{\ignorespaces Planeta, terreno e vegeta\IeC {\c c}\IeC {\~a}o gerados proceduralmente no jogo No Man's Sky}}{19}{figure.2.11}}
\newlabel{fig:nms}{{\M@TitleReference {11}{Planeta, terreno e vegeta\IeC {\c c}\IeC {\~a}o gerados proceduralmente no jogo No Man's Sky}}{19}{Planeta, terreno e vegetação gerados proceduralmente no jogo No Man's Sky}{figure.2.11}{}}
\citation{mandelbrotset}
\BKM@entry{id=30,dest={73656374696F6E2E322E33},srcline={540}}{4C696E67756167656D20466F726D616C2065204772616D5C3334317469636120466F726D616C}
\citation{meduna2014formal}
\citation{Sipser2007}
\@writefile{toc}{\contentsline {subsection}{\numberline {2.2.1}Fractais}{20}{subsection.2.2.1}}
\@writefile{lof}{\contentsline {figure}{\numberline {12}{\ignorespaces Fractal gerado pelo Conjunto de Mandelbrot}}{20}{figure.2.12}}
\BKM@entry{id=31,dest={73756273656374696F6E2E322E332E31},srcline={565}}{53697374656D6173204C696E64656E6D61796572}
\citation{Lindenmayer1996}
\@writefile{toc}{\contentsline {section}{\numberline {2.3}Linguagem Formal e Gram\IeC {\'a}tica Formal}{21}{section.2.3}}
\citation{lsystemtree}
\@writefile{toc}{\contentsline {subsection}{\numberline {2.3.1}Sistemas Lindenmayer}{22}{subsection.2.3.1}}
\@writefile{lof}{\contentsline {figure}{\numberline {13}{\ignorespaces Resultado de um L-System que gera galhos de \IeC {\'a}rvore}}{22}{figure.2.13}}
\newlabel{fig:tree}{{\M@TitleReference {13}{Resultado de um L-System que gera galhos de \IeC {\'a}rvore}}{22}{Resultado de um L-System que gera galhos de árvore}{figure.2.13}{}}
\BKM@entry{id=32,dest={73756273756273656374696F6E2E322E332E312E31},srcline={601}}{4C2D53797374656D2064657465726D696E5C333535737469636F}
\BKM@entry{id=33,dest={73756273756273656374696F6E2E322E332E312E32},srcline={605}}{4C2D53797374656D206573746F635C333431737469636F}
\BKM@entry{id=34,dest={73756273756273656374696F6E2E322E332E312E33},srcline={615}}{47725C3334316669636F7320746172746172756761}
\citation{maletsky2013fractals}
\@writefile{toc}{\contentsline {subsubsection}{\numberline {2.3.1.1}L-System determin\IeC {\'\i }stico}{23}{subsubsection.2.3.1.1}}
\@writefile{toc}{\contentsline {subsubsection}{\numberline {2.3.1.2}L-System estoc\IeC {\'a}stico}{23}{subsubsection.2.3.1.2}}
\citation{sierpinski}
\BKM@entry{id=35,dest={73656374696F6E2E322E34},srcline={640}}{4D75736963616C20496E737472756D656E74204469676974616C20496E74657266616365}
\citation{Forum2013}
\@writefile{toc}{\contentsline {subsubsection}{\numberline {2.3.1.3}Gr\IeC {\'a}ficos tartaruga}{24}{subsubsection.2.3.1.3}}
\@writefile{lof}{\contentsline {figure}{\numberline {14}{\ignorespaces Resultados de um L-System que produz um tri\IeC {\^a}ngulo de Sierpinski}}{24}{figure.2.14}}
\newlabel{fig:sierp}{{\M@TitleReference {14}{Resultados de um L-System que produz um tri\IeC {\^a}ngulo de Sierpinski}}{24}{Resultados de um L-System que produz um triângulo de Sierpinski}{figure.2.14}{}}
\BKM@entry{id=36,dest={73756273656374696F6E2E322E342E31},srcline={644}}{4172717569766F204D494449}
\citation{Association1988}
\@writefile{toc}{\contentsline {section}{\numberline {2.4}Musical Instrument Digital Interface}{25}{section.2.4}}
\@writefile{toc}{\contentsline {subsection}{\numberline {2.4.1}Arquivo MIDI}{25}{subsection.2.4.1}}
\@writefile{lot}{\contentsline {table}{\numberline {4}{\ignorespaces Estrutura generalizada do arquivo MIDI.}}{25}{table.2.4}}
\BKM@entry{id=37,dest={73756273756273656374696F6E2E322E342E312E31},srcline={706}}{426C6F636F20646520636162655C333437616C686F}
\@writefile{lot}{\contentsline {table}{\numberline {5}{\ignorespaces Estrutura do arquivo MIDI com v\IeC {\'a}rios blocos}}{26}{table.2.5}}
\@writefile{toc}{\contentsline {subsubsection}{\numberline {2.4.1.1}Bloco de cabe\IeC {\c c}alho}{26}{subsubsection.2.4.1.1}}
\@writefile{lot}{\contentsline {table}{\numberline {6}{\ignorespaces Estrutura do Bloco de cabe\IeC {\c c}alho do arquivo MIDI}}{26}{table.2.6}}
\BKM@entry{id=38,dest={73756273756273656374696F6E2E322E342E312E32},srcline={761}}{426C6F636F206465206661697861}
\@writefile{lot}{\contentsline {table}{\numberline {7}{\ignorespaces Parte de divis\IeC {\~a}o de tempo do Bloco de Cabe\IeC {\c c}alho do arquivo MIDI}}{27}{table.2.7}}
\@writefile{toc}{\contentsline {subsubsection}{\numberline {2.4.1.2}Bloco de faixa}{27}{subsubsection.2.4.1.2}}
\@writefile{lot}{\contentsline {table}{\numberline {8}{\ignorespaces Estrutura do Bloco de faixa do arquivo MIDI}}{27}{table.2.8}}
\citation{Association1988}
\BKM@entry{id=39,dest={73656374696F6E2E322E35},srcline={826}}{5069616E6F20526F6C6C}
\citation{pianoroll}
\@writefile{lot}{\contentsline {table}{\numberline {9}{\ignorespaces N\IeC {\'u}mero correspondente a cada nota musical e sua oitava em um MIDI}}{28}{table.2.9}}
\newlabel{tab:midinotes}{{\M@TitleReference {9}{N\IeC {\'u}mero correspondente a cada nota musical e sua oitava em um MIDI}}{28}{Número correspondente a cada nota musical e sua oitava em um MIDI}{table.2.9}{}}
\@writefile{toc}{\contentsline {section}{\numberline {2.5}Piano Roll}{28}{section.2.5}}
\@writefile{lof}{\contentsline {figure}{\numberline {15}{\ignorespaces Exemplo de um Piano Roll}}{28}{figure.2.15}}
\newlabel{fig:pianoroll}{{\M@TitleReference {15}{Exemplo de um Piano Roll}}{28}{Exemplo de um Piano Roll}{figure.2.15}{}}
\BKM@entry{id=40,dest={73656374696F6E2E322E36},srcline={842}}{50756C73652D436F6465204D6F64756C6174696F6E}
\citation{Gupta2016}
\citation{ecedunia2016}
\@writefile{toc}{\contentsline {section}{\numberline {2.6}Pulse-Code Modulation}{29}{section.2.6}}
\@writefile{lof}{\contentsline {figure}{\numberline {16}{\ignorespaces Exemplo do processo de sampling}}{29}{figure.2.16}}
\newlabel{fig:pcm}{{\M@TitleReference {16}{Exemplo do processo de sampling}}{29}{Exemplo do processo de sampling}{figure.2.16}{}}
\BKM@entry{id=41,dest={73656374696F6E2E322E37},srcline={866}}{506F7274417564696F}
\BKM@entry{id=42,dest={73656374696F6E2E322E38},srcline={870}}{53696D706C6520616E642046617374204D756C74696D65646961204C696272617279}
\@writefile{toc}{\contentsline {section}{\numberline {2.7}PortAudio}{30}{section.2.7}}
\@writefile{toc}{\contentsline {section}{\numberline {2.8}Simple and Fast Multimedia Library}{30}{section.2.8}}
\BKM@entry{id=43,dest={636861707465722E33},srcline={875}}{446573656E766F6C76696D656E746F}
\BKM@entry{id=44,dest={73656374696F6E2E332E31},srcline={877}}{45737475646F206465204C2D53797374656D73}
\BKM@entry{id=45,dest={73656374696F6E2E332E32},srcline={881}}{416C676F7269746D6F20646520726570726F64755C3334375C3334336F}
\citation{Prusinkiewicz1986}
\BKM@entry{id=46,dest={73656374696F6E2E332E33},srcline={887}}{416C676F7269746D6F206465205069616E6F20526F6C6C}
\BKM@entry{id=47,dest={73656374696F6E2E332E34},srcline={891}}{4176616C69615C3334375C3334336F206D75736963616C}
\@writefile{toc}{\setlength  {\cftchapterindent }{0em} \setlength  {\cftchapternumwidth }{\cftlastnumwidth }}
\@writefile{toc}{\contentsline {chapter}{\chapternumberline {3}\MakeTextUppercase  {Desenvolvimento}}{31}{chapter.3}}
\@writefile{toc}{\contentsline {section}{\numberline {3.1}Estudo de L-Systems}{31}{section.3.1}}
\@writefile{toc}{\contentsline {section}{\numberline {3.2}Algoritmo de reprodu\IeC {\c c}\IeC {\~a}o}{31}{section.3.2}}
\@writefile{toc}{\contentsline {section}{\numberline {3.3}Algoritmo de Piano Roll}{31}{section.3.3}}
\BKM@entry{id=48,dest={73756273656374696F6E2E332E342E31},srcline={895}}{436F6D706172615C3334375C3334336F20636F6D206D5C3337327369636173}
\citation{Kathiresan2015}
\BKM@entry{id=49,dest={73756273656374696F6E2E332E342E32},srcline={899}}{436F6D706172615C3334375C3334336F20646520726573756C7461646F73}
\BKM@entry{id=50,dest={73656374696F6E2E332E35},srcline={903}}{416C676F7269746D6F20646520616C746572615C3334375C3334336F206D75736963616C}
\BKM@entry{id=51,dest={73756273656374696F6E2E332E352E31},srcline={910}}{4176616C69615C3334375C3334336F20646F20616C676F7269746D6F20646520616C746572615C3334375C3334336F206D75736963616C}
\citation{Collins2009}
\@writefile{toc}{\contentsline {section}{\numberline {3.4}Avalia\IeC {\c c}\IeC {\~a}o musical}{32}{section.3.4}}
\@writefile{toc}{\contentsline {subsection}{\numberline {3.4.1}Compara\IeC {\c c}\IeC {\~a}o com m\IeC {\'u}sicas}{32}{subsection.3.4.1}}
\@writefile{toc}{\contentsline {subsection}{\numberline {3.4.2}Compara\IeC {\c c}\IeC {\~a}o de resultados}{32}{subsection.3.4.2}}
\@writefile{toc}{\contentsline {section}{\numberline {3.5}Algoritmo de altera\IeC {\c c}\IeC {\~a}o musical}{32}{section.3.5}}
\citation{a1studmuffin}
\citation{Farnell2007}
\citation{Lourenc2009}
\citation{Mccormack}
\citation{Jose2013}
\citation{Summerville2017}
\citation{Nelson1996}
\citation{Plans2012}
\citation{Xaine2017}
\citation{schoenberg1983theory}
\citation{edwards2011}
\citation{tanya2014}
\citation{ecedunia2016}
\citation{portaudio}
\citation{sfml}
\citation{mandelbrotset}
\citation{lsystemtree}
\citation{sierpinski}
\citation{pianoroll}
\bibdata{abntex2-options,references}
\@writefile{toc}{\contentsline {subsection}{\numberline {3.5.1}Avalia\IeC {\c c}\IeC {\~a}o do algoritmo de altera\IeC {\c c}\IeC {\~a}o musical}{33}{subsection.3.5.1}}
\BKM@entry{id=52,dest={73656374696F6E2A2E3130},srcline={3}}{52656665725C3335326E63696173206269626C696F67725C3334316669636173}
\bibcite{Adam2014}{Adam, Haungs e Khosmood 2014}
\bibciteEXPL{Adam2014}{Adam, Haungs e Khosmood}
\bibciteIMPL{Adam2014}{ADAM; HAUNGS; KHOSMOOD}
\bibciteYEAR{Adam2014}{2014}
\bibcite{mandelbrotset}{Bourke 2002}
\bibciteEXPL{mandelbrotset}{Bourke}
\bibciteIMPL{mandelbrotset}{BOURKE}
\bibciteYEAR{mandelbrotset}{2002}
\bibcite{Collins2009}{Collins 2009}
\bibciteEXPL{Collins2009}{Collins}
\bibciteIMPL{Collins2009}{COLLINS}
\bibciteYEAR{Collins2009}{2009}
\bibcite{ecedunia2016}{{COMMUNICATION SYSTEMS} 2016}
\bibciteEXPL{ecedunia2016}{{COMMUNICATION SYSTEMS}}
\bibciteIMPL{ecedunia2016}{{COMMUNICATION SYSTEMS}}
\bibciteYEAR{ecedunia2016}{2016}
\bibcite{a1studmuffin}{Davies 2018}
\bibciteEXPL{a1studmuffin}{Davies}
\bibciteIMPL{a1studmuffin}{DAVIES}
\bibciteYEAR{a1studmuffin}{2018}
\bibcite{edwards2011}{Edwards 2011}
\bibciteEXPL{edwards2011}{Edwards}
\bibciteIMPL{edwards2011}{EDWARDS}
\bibciteYEAR{edwards2011}{2011}
\bibcite{Farnell2007}{Farnell 2007}
\bibciteEXPL{Farnell2007}{Farnell}
\bibciteIMPL{Farnell2007}{FARNELL}
\bibciteYEAR{Farnell2007}{2007}
\bibcite{FractalFoundation2009}{{FRACTAL FOUNDATION} 2009}
\bibciteEXPL{FractalFoundation2009}{{FRACTAL FOUNDATION}}
\bibciteIMPL{FractalFoundation2009}{{FRACTAL FOUNDATION}}
\bibciteYEAR{FractalFoundation2009}{2009}
\bibcite{Freiknecht2017}{Freiknecht e Effelsberg 2017}
\bibciteEXPL{Freiknecht2017}{Freiknecht e Effelsberg}
\bibciteIMPL{Freiknecht2017}{FREIKNECHT; EFFELSBERG}
\bibciteYEAR{Freiknecht2017}{2017}
\bibcite{sfml}{Gomila 2018}
\bibciteEXPL{sfml}{Gomila}
\bibciteIMPL{sfml}{GOMILA}
\bibciteYEAR{sfml}{2018}
\bibcite{Gupta2016}{Gupta, Jha e Prakash 2016}
\bibciteEXPL{Gupta2016}{Gupta, Jha e Prakash}
\bibciteIMPL{Gupta2016}{GUPTA; JHA; PRAKASH}
\bibciteYEAR{Gupta2016}{2016}
\bibcite{Hendrikx2013}{Hendrikx et al. 2013}
\bibciteEXPL{Hendrikx2013}{Hendrikx et al.}
\bibciteIMPL{Hendrikx2013}{HENDRIKX et al.}
\bibciteYEAR{Hendrikx2013}{2013}
\bibcite{Association1988}{{INTERNATIONAL MIDI ASSOCIATION} 1988}
\bibciteEXPL{Association1988}{{INTERNATIONAL MIDI ASSOCIATION}}
\bibciteIMPL{Association1988}{{INTERNATIONAL MIDI ASSOCIATION}}
\bibciteYEAR{Association1988}{1988}
\bibcite{Jaques2016}{Jaques et al. 2016}
\bibciteEXPL{Jaques2016}{Jaques et al.}
\bibciteIMPL{Jaques2016}{JAQUES et al.}
\bibciteYEAR{Jaques2016}{2016}
\bibcite{Jose2013}{Jose 2013}
\bibciteEXPL{Jose2013}{Jose}
\bibciteIMPL{Jose2013}{JOSE}
\bibciteYEAR{Jose2013}{2013}
\bibcite{Kathiresan2015}{Kathiresan 2015}
\bibciteEXPL{Kathiresan2015}{Kathiresan}
\bibciteIMPL{Kathiresan2015}{KATHIRESAN}
\bibciteYEAR{Kathiresan2015}{2015}
\bibcite{Xaine2017}{Khlorik 2017}
\bibciteEXPL{Xaine2017}{Khlorik}
\bibciteIMPL{Xaine2017}{KHLORIK}
\bibciteYEAR{Xaine2017}{2017}
\@writefile{toc}{\setlength  {\cftchapterindent }{\cftlastnumwidth } \setlength  {\cftchapternumwidth }{2em}}
\@writefile{toc}{\contentsline {chapter}{\uppercase {Refer\^{e}ncias bibliogr\IeC {\'a}ficas}}{34}{section*.10}}
\bibcite{Lourenc2009}{Lourenc e Brand 2009}
\bibciteEXPL{Lourenc2009}{Lourenc e Brand}
\bibciteIMPL{Lourenc2009}{LOURENC; BRAND}
\bibciteYEAR{Lourenc2009}{2009}
\bibcite{maletsky2013fractals}{Maletsky et al. 2013}
\bibciteEXPL{maletsky2013fractals}{Maletsky et al.}
\bibciteIMPL{maletsky2013fractals}{MALETSKY et al.}
\bibciteYEAR{maletsky2013fractals}{2013}
\bibcite{Manousakis2006}{Manousakis 2006}
\bibciteEXPL{Manousakis2006}{Manousakis}
\bibciteIMPL{Manousakis2006}{MANOUSAKIS}
\bibciteYEAR{Manousakis2006}{2006}
\bibcite{sierpinski}{Marquez-Raygoza 20??}
\bibciteEXPL{sierpinski}{Marquez-Raygoza}
\bibciteIMPL{sierpinski}{MARQUEZ-RAYGOZA}
\bibciteYEAR{sierpinski}{20??}
\bibcite{Mccormack}{Mccormack}
\bibciteEXPL{Mccormack}{Mccormack}
\bibciteIMPL{Mccormack}{MCCORMACK}
\bibciteYEAR{Mccormack}{}
\bibcite{med1996teoria}{Med 1996}
\bibciteEXPL{med1996teoria}{Med}
\bibciteIMPL{med1996teoria}{MED}
\bibciteYEAR{med1996teoria}{1996}
\bibcite{meduna2014formal}{Meduna 2014}
\bibciteEXPL{meduna2014formal}{Meduna}
\bibciteIMPL{meduna2014formal}{MEDUNA}
\bibciteYEAR{meduna2014formal}{2014}
\bibcite{Forum2013}{{MIDI MANUFACTURERS ASSOCIATION} 2013}
\bibciteEXPL{Forum2013}{{MIDI MANUFACTURERS ASSOCIATION}}
\bibciteIMPL{Forum2013}{{MIDI MANUFACTURERS ASSOCIATION}}
\bibciteYEAR{Forum2013}{2013}
\bibcite{Nelson1996}{Nelson 1996}
\bibciteEXPL{Nelson1996}{Nelson}
\bibciteIMPL{Nelson1996}{NELSON}
\bibciteYEAR{Nelson1996}{1996}
\bibcite{Olsen2004}{Olsen 2004}
\bibciteEXPL{Olsen2004}{Olsen}
\bibciteIMPL{Olsen2004}{OLSEN}
\bibciteYEAR{Olsen2004}{2004}
\bibcite{Plans2012}{Plans e Morelli 2012}
\bibciteEXPL{Plans2012}{Plans e Morelli}
\bibciteIMPL{Plans2012}{PLANS; MORELLI}
\bibciteYEAR{Plans2012}{2012}
\bibcite{portaudio}{{PORTAUDIO COMMUNITY} 2011}
\bibciteEXPL{portaudio}{{PORTAUDIO COMMUNITY}}
\bibciteIMPL{portaudio}{{PORTAUDIO COMMUNITY}}
\bibciteYEAR{portaudio}{2011}
\bibcite{Prusinkiewicz1986}{Prusinkiewicz 1986}
\bibciteEXPL{Prusinkiewicz1986}{Prusinkiewicz}
\bibciteIMPL{Prusinkiewicz1986}{PRUSINKIEWICZ}
\bibciteYEAR{Prusinkiewicz1986}{1986}
\bibcite{Lindenmayer1996}{Prusinkiewicz e Lindenmayer 1996}
\bibciteEXPL{Lindenmayer1996}{Prusinkiewicz e Lindenmayer}
\bibciteIMPL{Lindenmayer1996}{PRUSINKIEWICZ; LINDENMAYER}
\bibciteYEAR{Lindenmayer1996}{1996}
\bibcite{schoenberg1983theory}{Schoenberg 1983}
\bibciteEXPL{schoenberg1983theory}{Schoenberg}
\bibciteIMPL{schoenberg1983theory}{SCHOENBERG}
\bibciteYEAR{schoenberg1983theory}{1983}
\bibcite{tanya2014}{Short 2014}
\bibciteEXPL{tanya2014}{Short}
\bibciteIMPL{tanya2014}{SHORT}
\bibciteYEAR{tanya2014}{2014}
\bibcite{Sipser2007}{Sipser 2007}
\bibciteEXPL{Sipser2007}{Sipser}
\bibciteIMPL{Sipser2007}{SIPSER}
\bibciteYEAR{Sipser2007}{2007}
\bibcite{Smith2011}{Smith et al. 2011}
\bibciteEXPL{Smith2011}{Smith et al.}
\bibciteIMPL{Smith2011}{SMITH et al.}
\bibciteYEAR{Smith2011}{2011}
\bibcite{lsystemtree}{Soapbox 2014}
\bibciteEXPL{lsystemtree}{Soapbox}
\bibciteIMPL{lsystemtree}{SOAPBOX}
\bibciteYEAR{lsystemtree}{2014}
\bibcite{Summerville2017}{Summerville et al. 2017}
\bibciteEXPL{Summerville2017}{Summerville et al.}
\bibciteIMPL{Summerville2017}{SUMMERVILLE et al.}
\bibciteYEAR{Summerville2017}{2017}
\bibcite{pianoroll}{Vincent 2018}
\bibciteEXPL{pianoroll}{Vincent}
\bibciteIMPL{pianoroll}{VINCENT}
\bibciteYEAR{pianoroll}{2018}
\newlabel{LastPage}{{}{36}{}{page.36}{}}
\xdef\lastpage@lastpage{36}
\xdef\lastpage@lastpageHy{36}
\bibstyle{abntex2-alf}
\memsetcounter{lastsheet}{37}
\memsetcounter{lastpage}{36}
