\relax 
\providecommand\hyper@newdestlabel[2]{}
\providecommand\BKM@entry[2]{}
\providecommand*{\memsetcounter}[2]{}
\providecommand\HyperFirstAtBeginDocument{\AtBeginDocument}
\HyperFirstAtBeginDocument{\ifx\hyper@anchor\@undefined
\global\let\oldcontentsline\contentsline
\gdef\contentsline#1#2#3#4{\oldcontentsline{#1}{#2}{#3}}
\global\let\oldnewlabel\newlabel
\gdef\newlabel#1#2{\newlabelxx{#1}#2}
\gdef\newlabelxx#1#2#3#4#5#6{\oldnewlabel{#1}{{#2}{#3}}}
\AtEndDocument{\ifx\hyper@anchor\@undefined
\let\contentsline\oldcontentsline
\let\newlabel\oldnewlabel
\fi}
\fi}
\global\let\hyper@last\relax 
\gdef\HyperFirstAtBeginDocument#1{#1}
\providecommand\HyField@AuxAddToFields[1]{}
\providecommand\HyField@AuxAddToCoFields[2]{}
\catcode `:\active 
\catcode `;\active 
\catcode `!\active 
\catcode `?\active 
\catcode `"\active 
\catcode `<\active 
\catcode `>\active 
\@nameuse{es@quoting}
\citation{abnt-url-package=url}
\@writefile{toc}{\changetocdepth  {4}}
\select@language{brazil}
\@writefile{toc}{\select@language{brazil}}
\@writefile{lof}{\select@language{brazil}}
\@writefile{lot}{\select@language{brazil}}
\BKM@entry{id=1,dest={6368617074657262312E30},srcline={143}}{466F6C686120646520726F73746F}
\BKM@entry{id=2,dest={6368617074657262332E30},srcline={148}}{41677261646563696D656E746F73}
\@writefile{toc}{\setlength  {\cftchapterindent }{\cftlastnumwidth } \setlength  {\cftchapternumwidth }{2em}}
\BKM@entry{id=3,dest={6368617074657262342E30},srcline={158}}{526573756D6F}
\BKM@entry{id=4,dest={6368617074657262352E30},srcline={169}}{4162737472616374}
\select@language{english}
\@writefile{toc}{\select@language{english}}
\@writefile{lof}{\select@language{english}}
\@writefile{lot}{\select@language{english}}
\BKM@entry{id=5,dest={6C6F662E30},srcline={178}}{4C6973746120646520696C75737472615C3334375C3336356573}
\BKM@entry{id=6,dest={73656374696F6E2A2E36},srcline={180}}{4C6973746120646520696C75737472615C3334375C3336356573}
\select@language{brazil}
\@writefile{toc}{\select@language{brazil}}
\@writefile{lof}{\select@language{brazil}}
\@writefile{lot}{\select@language{brazil}}
\@writefile{toc}{\setlength  {\cftchapterindent }{\cftlastnumwidth } \setlength  {\cftchapternumwidth }{2em}}
\@writefile{toc}{\contentsline {chapter}{Lista de ilustra\c {c}\~{o}es}{5}{section*.6}}
\BKM@entry{id=7,dest={6C6F742E30},srcline={184}}{4C6973746120646520746162656C6173}
\BKM@entry{id=8,dest={73656374696F6E2A2E37},srcline={186}}{4C6973746120646520746162656C6173}
\@writefile{toc}{\setlength  {\cftchapterindent }{\cftlastnumwidth } \setlength  {\cftchapternumwidth }{2em}}
\@writefile{toc}{\contentsline {chapter}{Lista de tabelas}{6}{section*.7}}
\BKM@entry{id=9,dest={6368617074657262372E30},srcline={189}}{4C69737461206465206162726576696174757261732065207369676C6173}
\@writefile{toc}{\setlength  {\cftchapterindent }{\cftlastnumwidth } \setlength  {\cftchapternumwidth }{2em}}
\BKM@entry{id=10,dest={746F632E30},srcline={202}}{53756D5C33343172696F}
\BKM@entry{id=11,dest={73656374696F6E2A2E3130},srcline={204}}{53756D5C33343172696F}
\@writefile{toc}{\setlength  {\cftchapterindent }{\cftlastnumwidth } \setlength  {\cftchapternumwidth }{2em}}
\@writefile{toc}{\contentsline {chapter}{Sum\'ario}{8}{section*.10}}
\BKM@entry{id=12,dest={636861707465722E31},srcline={209}}{496E74726F64755C3334375C3334336F}
\BKM@entry{id=13,dest={73656374696F6E2E312E31},srcline={211}}{436F6E746578746F}
\citation{Freiknecht2017}
\citation{edwards2011}
\citation{Prusinkiewicz1986}
\citation{Adam2014}
\citation{Manousakis2006}
\citation{Jaques2016}
\citation{Kathiresan2015}
\@writefile{toc}{\setlength  {\cftchapterindent }{0em} \setlength  {\cftchapternumwidth }{\cftlastnumwidth }}
\@writefile{toc}{\contentsline {chapter}{\chapternumberline {1}\MakeTextUppercase  {Introdu\IeC {\c c}\IeC {\~a}o}}{10}{chapter.1}}
\@writefile{toc}{\contentsline {section}{\numberline {1.1}Contexto}{10}{section.1.1}}
\BKM@entry{id=14,dest={73656374696F6E2E312E32},srcline={223}}{4F626A657469766F20676572616C}
\BKM@entry{id=15,dest={73756273656374696F6E2E312E322E31},srcline={229}}{4F626A657469766F732065737065635C3335356669636F73}
\@writefile{toc}{\contentsline {section}{\numberline {1.2}Objetivo geral}{11}{section.1.2}}
\@writefile{toc}{\contentsline {subsection}{\numberline {1.2.1}Objetivos espec\IeC {\'\i }ficos}{11}{subsection.1.2.1}}
\BKM@entry{id=16,dest={636861707465722E32},srcline={242}}{52657669735C3334336F204269626C696F67725C33343166696361}
\BKM@entry{id=17,dest={73656374696F6E2E322E31},srcline={244}}{46756E64616D656E746F73206D75736963616973}
\citation{med1996teoria}
\BKM@entry{id=18,dest={73756273656374696F6E2E322E312E31},srcline={267}}{4E6F746173206D75736963616973}
\@writefile{toc}{\setlength  {\cftchapterindent }{0em} \setlength  {\cftchapternumwidth }{\cftlastnumwidth }}
\@writefile{toc}{\contentsline {chapter}{\chapternumberline {2}\MakeTextUppercase  {Revis\IeC {\~a}o Bibliogr\IeC {\'a}fica}}{12}{chapter.2}}
\@writefile{toc}{\contentsline {section}{\numberline {2.1}Fundamentos musicais}{12}{section.2.1}}
\@writefile{toc}{\contentsline {subsection}{\numberline {2.1.1}Notas musicais}{12}{subsection.2.1.1}}
\BKM@entry{id=19,dest={73756273656374696F6E2E322E312E32},srcline={279}}{457363616C6173}
\BKM@entry{id=20,dest={73756273756273656374696F6E2E322E312E322E31},srcline={283}}{457363616C61206D61696F72206E61747572616C}
\@writefile{toc}{\contentsline {subsection}{\numberline {2.1.2}Escalas}{13}{subsection.2.1.2}}
\@writefile{toc}{\contentsline {subsubsection}{\numberline {2.1.2.1}Escala maior natural}{13}{subsubsection.2.1.2.1}}
\BKM@entry{id=21,dest={73756273756273656374696F6E2E322E312E322E32},srcline={323}}{457363616C61206D656E6F72206E61747572616C}
\@writefile{lof}{\contentsline {figure}{\numberline {1}{\ignorespaces Escala maior natural de C (d\IeC {\'o})}}{14}{figure.2.1}}
\newlabel{esc:CMaior}{{\M@TitleReference {1}{Escala maior natural de C (d\IeC {\'o})}}{14}{Escala maior natural de C (dó)}{figure.2.1}{}}
\@writefile{lof}{\contentsline {figure}{\numberline {2}{\ignorespaces Escala maior natural de G (sol)}}{14}{figure.2.2}}
\newlabel{esc:GMaior}{{\M@TitleReference {2}{Escala maior natural de G (sol)}}{14}{Escala maior natural de G (sol)}{figure.2.2}{}}
\@writefile{lof}{\contentsline {figure}{\numberline {3}{\ignorespaces Escala maior natural de D (r\IeC {\'e})}}{14}{figure.2.3}}
\newlabel{esc:DMaior}{{\M@TitleReference {3}{Escala maior natural de D (r\IeC {\'e})}}{14}{Escala maior natural de D (ré)}{figure.2.3}{}}
\@writefile{toc}{\contentsline {subsubsection}{\numberline {2.1.2.2}Escala menor natural}{14}{subsubsection.2.1.2.2}}
\@writefile{lof}{\contentsline {figure}{\numberline {4}{\ignorespaces Escala menor natural de A (l\IeC {\'a})}}{14}{figure.2.4}}
\newlabel{esc:AMenor}{{\M@TitleReference {4}{Escala menor natural de A (l\IeC {\'a})}}{14}{Escala menor natural de A (lá)}{figure.2.4}{}}
\BKM@entry{id=22,dest={73756273756273656374696F6E2E322E312E322E33},srcline={349}}{457363616C61206D656E6F72206861726D5C3336346E696361}
\BKM@entry{id=23,dest={73756273756273656374696F6E2E322E312E322E34},srcline={365}}{457363616C61206D656E6F72206D656C5C33363364696361}
\BKM@entry{id=24,dest={73756273656374696F6E2E322E312E33},srcline={381}}{4D656C6F646961}
\@writefile{lof}{\contentsline {figure}{\numberline {5}{\ignorespaces Escala menor natural de E (mi)}}{15}{figure.2.5}}
\newlabel{esc:EMenor}{{\M@TitleReference {5}{Escala menor natural de E (mi)}}{15}{Escala menor natural de E (mi)}{figure.2.5}{}}
\@writefile{toc}{\contentsline {subsubsection}{\numberline {2.1.2.3}Escala menor harm\IeC {\^o}nica}{15}{subsubsection.2.1.2.3}}
\@writefile{lof}{\contentsline {figure}{\numberline {6}{\ignorespaces Escala menor harm\IeC {\^o}nica de A (l\IeC {\'a})}}{15}{figure.2.6}}
\newlabel{esc:AHarmonica}{{\M@TitleReference {6}{Escala menor harm\IeC {\^o}nica de A (l\IeC {\'a})}}{15}{Escala menor harmônica de A (lá)}{figure.2.6}{}}
\@writefile{toc}{\contentsline {subsubsection}{\numberline {2.1.2.4}Escala menor mel\IeC {\'o}dica}{15}{subsubsection.2.1.2.4}}
\BKM@entry{id=25,dest={73756273656374696F6E2E322E312E34},srcline={385}}{4861726D6F6E6961}
\BKM@entry{id=26,dest={73756273756273656374696F6E2E322E312E342E31},srcline={389}}{41636F72646573}
\@writefile{lof}{\contentsline {figure}{\numberline {7}{\ignorespaces Escala menor mel\IeC {\'o}dica de A (l\IeC {\'a})}}{16}{figure.2.7}}
\newlabel{esc:AMelodica}{{\M@TitleReference {7}{Escala menor mel\IeC {\'o}dica de A (l\IeC {\'a})}}{16}{Escala menor melódica de A (lá)}{figure.2.7}{}}
\@writefile{toc}{\contentsline {subsection}{\numberline {2.1.3}Melodia}{16}{subsection.2.1.3}}
\@writefile{toc}{\contentsline {subsection}{\numberline {2.1.4}Harmonia}{16}{subsection.2.1.4}}
\@writefile{toc}{\contentsline {subsubsection}{\numberline {2.1.4.1}Acordes}{16}{subsubsection.2.1.4.1}}
\BKM@entry{id=27,dest={73756273656374696F6E2E322E312E35},srcline={421}}{5269746D6F}
\@writefile{lot}{\contentsline {table}{\numberline {1}{\ignorespaces Acordes tr\IeC {\'\i }ades formados pela escala maior de C}}{17}{table.2.1}}
\newlabel{tab:acordesCMaior}{{\M@TitleReference {1}{Acordes tr\IeC {\'\i }ades formados pela escala maior de C}}{17}{Acordes tríades formados pela escala maior de C}{table.2.1}{}}
\@writefile{lot}{\contentsline {table}{\numberline {2}{\ignorespaces Acordes tr\IeC {\'\i }ades formados pela escala harm\IeC {\^o}nica de G}}{17}{table.2.2}}
\newlabel{tab:acordesGHarmonico}{{\M@TitleReference {2}{Acordes tr\IeC {\'\i }ades formados pela escala harm\IeC {\^o}nica de G}}{17}{Acordes tríades formados pela escala harmônica de G}{table.2.2}{}}
\BKM@entry{id=28,dest={73756273656374696F6E2E322E312E36},srcline={439}}{44696E5C3334326D696361}
\@writefile{toc}{\contentsline {subsection}{\numberline {2.1.5}Ritmo}{18}{subsection.2.1.5}}
\@writefile{lof}{\contentsline {figure}{\numberline {8}{\ignorespaces Divis\IeC {\~a}o de unidades de tempo e suas representa\IeC {\c c}\IeC {\~o}es gr\IeC {\'a}ficas, usadas em m\IeC {\'u}sicas}}{18}{figure.2.8}}
\newlabel{fig:ritmo}{{\M@TitleReference {8}{Divis\IeC {\~a}o de unidades de tempo e suas representa\IeC {\c c}\IeC {\~o}es gr\IeC {\'a}ficas, usadas em m\IeC {\'u}sicas}}{18}{Divisão de unidades de tempo e suas representações gráficas, usadas em músicas}{figure.2.8}{}}
\BKM@entry{id=29,dest={73656374696F6E2E322E32},srcline={468}}{476572615C3334375C3334336F2070726F6365647572616C}
\citation{Smith2011}
\citation{Hendrikx2013}
\citation{a1studmuffin}
\@writefile{toc}{\contentsline {subsection}{\numberline {2.1.6}Din\IeC {\^a}mica}{19}{subsection.2.1.6}}
\@writefile{lot}{\contentsline {table}{\numberline {3}{\ignorespaces N\IeC {\'\i }veis de intensidade da din\IeC {\^a}mica musical}}{19}{table.2.3}}
\newlabel{tab:dinamica}{{\M@TitleReference {3}{N\IeC {\'\i }veis de intensidade da din\IeC {\^a}mica musical}}{19}{Níveis de intensidade da dinâmica musical}{table.2.3}{}}
\@writefile{toc}{\contentsline {section}{\numberline {2.2}Gera\IeC {\c c}\IeC {\~a}o procedural}{19}{section.2.2}}
\citation{motiontwin}
\citation{Olsen2004}
\citation{hellogames}
\@writefile{lof}{\contentsline {figure}{\numberline {9}{\ignorespaces Modelos de naves espaciais geradas proceduralmente}}{20}{figure.2.9}}
\newlabel{fig:space}{{\M@TitleReference {9}{Modelos de naves espaciais geradas proceduralmente}}{20}{Modelos de naves espaciais geradas proceduralmente}{figure.2.9}{}}
\@writefile{lof}{\contentsline {figure}{\numberline {10}{\ignorespaces Cen\IeC {\'a}rio gerado proceduralmente no jogo Dead Cells}}{20}{figure.2.10}}
\newlabel{fig:kit}{{\M@TitleReference {10}{Cen\IeC {\'a}rio gerado proceduralmente no jogo Dead Cells}}{20}{Cenário gerado proceduralmente no jogo Dead Cells}{figure.2.10}{}}
\@writefile{lof}{\contentsline {figure}{\numberline {11}{\ignorespaces Criaturas, planeta e vegeta\IeC {\c c}\IeC {\~a}o gerados proceduralmente no jogo No Man's Sky}}{20}{figure.2.11}}
\newlabel{fig:nms}{{\M@TitleReference {11}{Criaturas, planeta e vegeta\IeC {\c c}\IeC {\~a}o gerados proceduralmente no jogo No Man's Sky}}{20}{Criaturas, planeta e vegetação gerados proceduralmente no jogo No Man's Sky}{figure.2.11}{}}
\BKM@entry{id=30,dest={73756273656374696F6E2E322E322E31},srcline={517}}{4672616374616973}
\citation{FractalFoundation2009}
\citation{mandelbrotset}
\BKM@entry{id=31,dest={73656374696F6E2E322E33},srcline={538}}{4C696E67756167656D20666F726D616C2065206772616D5C3334317469636120666F726D616C}
\citation{meduna2014formal}
\citation{Sipser2007}
\@writefile{toc}{\contentsline {subsection}{\numberline {2.2.1}Fractais}{21}{subsection.2.2.1}}
\@writefile{lof}{\contentsline {figure}{\numberline {12}{\ignorespaces Fractal gerado pelo Conjunto de Mandelbrot}}{21}{figure.2.12}}
\@writefile{toc}{\contentsline {section}{\numberline {2.3}Linguagem formal e gram\IeC {\'a}tica formal}{22}{section.2.3}}
\BKM@entry{id=32,dest={73656374696F6E2E322E34},srcline={567}}{53697374656D6173204C696E64656E6D61796572}
\citation{Lindenmayer1996}
\citation{lsystemtree}
\@writefile{toc}{\contentsline {section}{\numberline {2.4}Sistemas Lindenmayer}{23}{section.2.4}}
\@writefile{lof}{\contentsline {figure}{\numberline {13}{\ignorespaces Resultado de um L-System que gera galhos de \IeC {\'a}rvore}}{23}{figure.2.13}}
\newlabel{fig:tree}{{\M@TitleReference {13}{Resultado de um L-System que gera galhos de \IeC {\'a}rvore}}{23}{Resultado de um L-System que gera galhos de árvore}{figure.2.13}{}}
\BKM@entry{id=33,dest={73756273656374696F6E2E322E342E31},srcline={601}}{4C2D53797374656D2064657465726D696E5C333535737469636F}
\BKM@entry{id=34,dest={73756273656374696F6E2E322E342E32},srcline={605}}{4C2D53797374656D206573746F635C333431737469636F}
\citation{Manousakis2006}
\@writefile{toc}{\contentsline {subsection}{\numberline {2.4.1}L-System determin\IeC {\'\i }stico}{24}{subsection.2.4.1}}
\@writefile{toc}{\contentsline {subsection}{\numberline {2.4.2}L-System estoc\IeC {\'a}stico}{24}{subsection.2.4.2}}
\BKM@entry{id=35,dest={73756273656374696F6E2E322E342E33},srcline={617}}{47725C3334316669636F7320746172746172756761}
\citation{maletsky2013fractals}
\citation{sierpinski}
\@writefile{toc}{\contentsline {subsection}{\numberline {2.4.3}Gr\IeC {\'a}ficos tartaruga}{25}{subsection.2.4.3}}
\BKM@entry{id=36,dest={73656374696F6E2E322E35},srcline={642}}{4D75736963616C20496E737472756D656E74204469676974616C20496E74657266616365}
\citation{Forum2013}
\BKM@entry{id=37,dest={73756273656374696F6E2E322E352E31},srcline={646}}{4172717569766F204D494449}
\citation{Association1988}
\@writefile{lof}{\contentsline {figure}{\numberline {14}{\ignorespaces Resultados de um L-System que produz um tri\IeC {\^a}ngulo de Sierpinski}}{26}{figure.2.14}}
\newlabel{fig:sierp}{{\M@TitleReference {14}{Resultados de um L-System que produz um tri\IeC {\^a}ngulo de Sierpinski}}{26}{Resultados de um L-System que produz um triângulo de Sierpinski}{figure.2.14}{}}
\@writefile{toc}{\contentsline {section}{\numberline {2.5}Musical Instrument Digital Interface}{26}{section.2.5}}
\@writefile{toc}{\contentsline {subsection}{\numberline {2.5.1}Arquivo MIDI}{26}{subsection.2.5.1}}
\BKM@entry{id=38,dest={73756273756273656374696F6E2E322E352E312E31},srcline={708}}{426C6F636F20646520636162655C333437616C686F}
\@writefile{lot}{\contentsline {table}{\numberline {4}{\ignorespaces Estrutura generalizada do arquivo MIDI.}}{27}{table.2.4}}
\@writefile{lot}{\contentsline {table}{\numberline {5}{\ignorespaces Estrutura do arquivo MIDI com v\IeC {\'a}rios blocos}}{27}{table.2.5}}
\@writefile{toc}{\contentsline {subsubsection}{\numberline {2.5.1.1}Bloco de cabe\IeC {\c c}alho}{27}{subsubsection.2.5.1.1}}
\newlabel{cabecalho}{{\M@TitleReference {2.5.1.1}{Bloco de cabe\IeC {\c c}alho}}{27}{Bloco de cabeçalho}{subsubsection.2.5.1.1}{}}
\BKM@entry{id=39,dest={73756273756273656374696F6E2E322E352E312E32},srcline={763}}{426C6F636F206465206661697861}
\@writefile{lot}{\contentsline {table}{\numberline {6}{\ignorespaces Estrutura do Bloco de cabe\IeC {\c c}alho do arquivo MIDI}}{28}{table.2.6}}
\@writefile{lot}{\contentsline {table}{\numberline {7}{\ignorespaces Parte de divis\IeC {\~a}o de tempo do Bloco de Cabe\IeC {\c c}alho do arquivo MIDI}}{28}{table.2.7}}
\citation{Association1988}
\@writefile{toc}{\contentsline {subsubsection}{\numberline {2.5.1.2}Bloco de faixa}{29}{subsubsection.2.5.1.2}}
\@writefile{lot}{\contentsline {table}{\numberline {8}{\ignorespaces Estrutura do Bloco de faixa do arquivo MIDI}}{29}{table.2.8}}
\@writefile{lot}{\contentsline {table}{\numberline {9}{\ignorespaces N\IeC {\'u}mero correspondente a cada nota musical e sua oitava em um MIDI}}{29}{table.2.9}}
\newlabel{tab:midinotes}{{\M@TitleReference {9}{N\IeC {\'u}mero correspondente a cada nota musical e sua oitava em um MIDI}}{29}{Número correspondente a cada nota musical e sua oitava em um MIDI}{table.2.9}{}}
\BKM@entry{id=40,dest={73656374696F6E2E322E36},srcline={832}}{50756C73652D436F6465204D6F64756C6174696F6E}
\citation{Gupta2016}
\citation{inproceedings}
\@writefile{toc}{\contentsline {section}{\numberline {2.6}Pulse-Code Modulation}{30}{section.2.6}}
\@writefile{lof}{\contentsline {figure}{\numberline {15}{\ignorespaces Exemplo do processo de sampling}}{30}{figure.2.15}}
\newlabel{fig:pcm}{{\M@TitleReference {15}{Exemplo do processo de sampling}}{30}{Exemplo do processo de sampling}{figure.2.15}{}}
\BKM@entry{id=41,dest={73656374696F6E2E322E37},srcline={856}}{506F7274417564696F}
\citation{portaudio}
\BKM@entry{id=42,dest={73656374696F6E2E322E38},srcline={862}}{54726162616C686F732072656C6163696F6E61646F73}
\citation{Prusinkiewicz1986}
\citation{Manousakis2006}
\@writefile{toc}{\contentsline {section}{\numberline {2.7}PortAudio}{31}{section.2.7}}
\@writefile{toc}{\contentsline {section}{\numberline {2.8}Trabalhos relacionados}{31}{section.2.8}}
\BKM@entry{id=43,dest={636861707465722E33},srcline={868}}{446573656E766F6C76696D656E746F}
\BKM@entry{id=44,dest={73656374696F6E2E332E31},srcline={872}}{50726F706F73746120646520636F6D706F73695C3334375C3334336F206D75736963616C}
\@writefile{toc}{\setlength  {\cftchapterindent }{0em} \setlength  {\cftchapternumwidth }{\cftlastnumwidth }}
\@writefile{toc}{\contentsline {chapter}{\chapternumberline {3}\MakeTextUppercase  {Desenvolvimento}}{32}{chapter.3}}
\@writefile{toc}{\contentsline {section}{\numberline {3.1}Proposta de composi\IeC {\c c}\IeC {\~a}o musical}{32}{section.3.1}}
\@writefile{lof}{\contentsline {figure}{\numberline {16}{\ignorespaces Diagrama geral para composi\IeC {\c c}\IeC {\~a}o musical e seus algoritmos}}{32}{figure.3.16}}
\newlabel{fig:generaldiagram}{{\M@TitleReference {16}{Diagrama geral para composi\IeC {\c c}\IeC {\~a}o musical e seus algoritmos}}{32}{Diagrama geral para composição musical e seus algoritmos}{figure.3.16}{}}
\BKM@entry{id=45,dest={73656374696F6E2E332E32},srcline={890}}{4D6174657269616973}
\BKM@entry{id=46,dest={73656374696F6E2E332E33},srcline={898}}{4D65746F646F6C6F676961}
\BKM@entry{id=47,dest={73756273656374696F6E2E332E332E31},srcline={902}}{416C676F7269746D6F73206465204C2D53797374656D73}
\BKM@entry{id=48,dest={73756273756273656374696F6E2E332E332E312E31},srcline={906}}{437269615C3334375C3334336F206465204C2D53797374656D73}
\@writefile{toc}{\contentsline {section}{\numberline {3.2}Materiais}{33}{section.3.2}}
\@writefile{toc}{\contentsline {section}{\numberline {3.3}Metodologia}{33}{section.3.3}}
\@writefile{toc}{\contentsline {subsection}{\numberline {3.3.1}Algoritmos de L-Systems}{33}{subsection.3.3.1}}
\@writefile{toc}{\contentsline {subsubsection}{\numberline {3.3.1.1}Cria\IeC {\c c}\IeC {\~a}o de L-Systems}{33}{subsubsection.3.3.1.1}}
\BKM@entry{id=49,dest={73756273756273656374696F6E2E332E332E312E32},srcline={945}}{437269615C3334375C3334336F2064652061636F72646573206D75736963616973}
\@writefile{lof}{\contentsline {figure}{\numberline {17}{\ignorespaces Exemplo do arquivo de texto gerado com as informa\IeC {\c c}\IeC {\~o}es do L-System}}{34}{figure.3.17}}
\newlabel{fig:textfile}{{\M@TitleReference {17}{Exemplo do arquivo de texto gerado com as informa\IeC {\c c}\IeC {\~o}es do L-System}}{34}{Exemplo do arquivo de texto gerado com as informações do L-System}{figure.3.17}{}}
\BKM@entry{id=50,dest={73756273756273656374696F6E2E332E332E312E33},srcline={959}}{476572615C3334375C3334336F206465207269746D6F206D75736963616C}
\@writefile{toc}{\contentsline {subsubsection}{\numberline {3.3.1.2}Cria\IeC {\c c}\IeC {\~a}o de acordes musicais}{35}{subsubsection.3.3.1.2}}
\@writefile{lof}{\contentsline {figure}{\numberline {18}{\ignorespaces Exemplo da constru\IeC {\c c}\IeC {\~a}o de acordes musicais}}{35}{figure.3.18}}
\newlabel{fig:chordbuild}{{\M@TitleReference {18}{Exemplo da constru\IeC {\c c}\IeC {\~a}o de acordes musicais}}{35}{Exemplo da construção de acordes musicais}{figure.3.18}{}}
\@writefile{toc}{\contentsline {subsubsection}{\numberline {3.3.1.3}Gera\IeC {\c c}\IeC {\~a}o de ritmo musical}{35}{subsubsection.3.3.1.3}}
\BKM@entry{id=51,dest={73756273656374696F6E2E332E332E32},srcline={965}}{416C676F7269746D6F20646520637269615C3334375C3334336F20646F206172717569766F204D494449}
\BKM@entry{id=52,dest={73756273656374696F6E2E332E332E33},srcline={1004}}{416C676F7269746D6F20646520726570726F64755C3334375C3334336F20656D2074656D706F2064652065786563755C3334375C3334336F}
\@writefile{toc}{\contentsline {subsection}{\numberline {3.3.2}Algoritmo de cria\IeC {\c c}\IeC {\~a}o do arquivo MIDI}{36}{subsection.3.3.2}}
\@writefile{lof}{\contentsline {figure}{\numberline {19}{\ignorespaces Composi\IeC {\c c}\IeC {\~a}o do arquivo MIDI criado pelo algoritmo}}{36}{figure.3.19}}
\newlabel{fig:mididiagram}{{\M@TitleReference {19}{Composi\IeC {\c c}\IeC {\~a}o do arquivo MIDI criado pelo algoritmo}}{36}{Composição do arquivo MIDI criado pelo algoritmo}{figure.3.19}{}}
\@writefile{lof}{\contentsline {figure}{\numberline {20}{\ignorespaces Exemplo da sequ\IeC {\^e}ncia de eventos do cabe\IeC {\c c}alho de faixa da melodia}}{37}{figure.3.20}}
\newlabel{fig:melodymidi}{{\M@TitleReference {20}{Exemplo da sequ\IeC {\^e}ncia de eventos do cabe\IeC {\c c}alho de faixa da melodia}}{37}{Exemplo da sequência de eventos do cabeçalho de faixa da melodia}{figure.3.20}{}}
\@writefile{lof}{\contentsline {figure}{\numberline {21}{\ignorespaces Exemplo da sequ\IeC {\^e}ncia de eventos do cabe\IeC {\c c}alho de faixa da harmonia}}{37}{figure.3.21}}
\newlabel{fig:harmonymidi}{{\M@TitleReference {21}{Exemplo da sequ\IeC {\^e}ncia de eventos do cabe\IeC {\c c}alho de faixa da harmonia}}{37}{Exemplo da sequência de eventos do cabeçalho de faixa da harmonia}{figure.3.21}{}}
\@writefile{toc}{\contentsline {subsection}{\numberline {3.3.3}Algoritmo de reprodu\IeC {\c c}\IeC {\~a}o em tempo de execu\IeC {\c c}\IeC {\~a}o}{37}{subsection.3.3.3}}
\@writefile{lof}{\contentsline {figure}{\numberline {22}{\ignorespaces Funcionamento geral do algoritmo de reprodu\IeC {\c c}\IeC {\~a}o em tempo de execu\IeC {\c c}\IeC {\~a}o}}{38}{figure.3.22}}
\newlabel{fig:portaudiodiagram}{{\M@TitleReference {22}{Funcionamento geral do algoritmo de reprodu\IeC {\c c}\IeC {\~a}o em tempo de execu\IeC {\c c}\IeC {\~a}o}}{38}{Funcionamento geral do algoritmo de reprodução em tempo de execução}{figure.3.22}{}}
\BKM@entry{id=53,dest={73756273656374696F6E2E332E332E34},srcline={1060}}{4176616C69615C3334375C3334336F206D75736963616C}
\@writefile{lof}{\contentsline {figure}{\numberline {23}{\ignorespaces Edi\IeC {\c c}\IeC {\~o}es realizadas na amostra PCM}}{39}{figure.3.23}}
\newlabel{fig:sampletime}{{\M@TitleReference {23}{Edi\IeC {\c c}\IeC {\~o}es realizadas na amostra PCM}}{39}{Edições realizadas na amostra PCM}{figure.3.23}{}}
\BKM@entry{id=54,dest={73756273756273656374696F6E2E332E332E342E31},srcline={1064}}{506573717569736120636F6D20696E74657265737361646F7320656D206D5C3337327369636173206465206A6F676F73206469676974616973}
\BKM@entry{id=55,dest={73756273756273656374696F6E2E332E332E342E32},srcline={1068}}{4176616C69615C3334375C3334336F206465206D5C3337327369636F732071756520636F6D7075736572616D206D5C33373273696361732070617261206A6F676F73206469676974616973}
\@writefile{lof}{\contentsline {figure}{\numberline {24}{\ignorespaces Diagrama do funcionamento dos \textit  {buffers}}}{40}{figure.3.24}}
\newlabel{fig:bufferdiagram}{{\M@TitleReference {24}{Diagrama do funcionamento dos \textit  {buffers}}}{40}{Diagrama do funcionamento dos \textit {buffers}}{figure.3.24}{}}
\@writefile{toc}{\contentsline {subsection}{\numberline {3.3.4}Avalia\IeC {\c c}\IeC {\~a}o musical}{40}{subsection.3.3.4}}
\@writefile{toc}{\contentsline {subsubsection}{\numberline {3.3.4.1}Pesquisa com interessados em m\IeC {\'u}sicas de jogos digitais}{40}{subsubsection.3.3.4.1}}
\@writefile{toc}{\contentsline {subsubsection}{\numberline {3.3.4.2}Avalia\IeC {\c c}\IeC {\~a}o de m\IeC {\'u}sicos que compuseram m\IeC {\'u}sicas para jogos digitais}{41}{subsubsection.3.3.4.2}}
\BKM@entry{id=56,dest={73656374696F6E2E332E34},srcline={1106}}{526573756C7461646F73}
\@writefile{toc}{\contentsline {section}{\numberline {3.4}Resultados}{42}{section.3.4}}
\@writefile{lof}{\contentsline {figure}{\numberline {25}{\ignorespaces Gr\IeC {\'a}fico geral da avalia\IeC {\c c}\IeC {\~a}o dos \IeC {\'a}udios gerados pelo algoritmo}}{42}{figure.3.25}}
\newlabel{fig:algorithmsongsresult}{{\M@TitleReference {25}{Gr\IeC {\'a}fico geral da avalia\IeC {\c c}\IeC {\~a}o dos \IeC {\'a}udios gerados pelo algoritmo}}{42}{Gráfico geral da avaliação dos áudios gerados pelo algoritmo}{figure.3.25}{}}
\@writefile{lof}{\contentsline {figure}{\numberline {26}{\ignorespaces Gr\IeC {\'a}fico da avalia\IeC {\c c}\IeC {\~a}o dos \IeC {\'a}udios por interessados em m\IeC {\'u}sicas de jogos digitais}}{43}{figure.3.26}}
\newlabel{fig:soundresults}{{\M@TitleReference {26}{Gr\IeC {\'a}fico da avalia\IeC {\c c}\IeC {\~a}o dos \IeC {\'a}udios por interessados em m\IeC {\'u}sicas de jogos digitais}}{43}{Gráfico da avaliação dos áudios por interessados em músicas de jogos digitais}{figure.3.26}{}}
\@writefile{lof}{\contentsline {figure}{\numberline {27}{\ignorespaces Gr\IeC {\'a}fico da aprova\IeC {\c c}\IeC {\~a}o da aplica\IeC {\c c}\IeC {\~a}o dos \IeC {\'a}udios em jogos digitais}}{43}{figure.3.27}}
\newlabel{fig:songapprovalresult}{{\M@TitleReference {27}{Gr\IeC {\'a}fico da aprova\IeC {\c c}\IeC {\~a}o da aplica\IeC {\c c}\IeC {\~a}o dos \IeC {\'a}udios em jogos digitais}}{43}{Gráfico da aprovação da aplicação dos áudios em jogos digitais}{figure.3.27}{}}
\BKM@entry{id=57,dest={73656374696F6E2E332E35},srcline={1152}}{416E5C3334316C69736520646F7320726573756C7461646F73}
\@writefile{toc}{\contentsline {section}{\numberline {3.5}An\IeC {\'a}lise dos resultados}{44}{section.3.5}}
\BKM@entry{id=58,dest={636861707465722E34},srcline={1156}}{436F6E636C75735C3334336F}
\BKM@entry{id=59,dest={73656374696F6E2E342E31},srcline={1166}}{54726162616C686F732066757475726F73}
\@writefile{toc}{\setlength  {\cftchapterindent }{0em} \setlength  {\cftchapternumwidth }{\cftlastnumwidth }}
\@writefile{toc}{\contentsline {chapter}{\chapternumberline {4}\MakeTextUppercase  {Conclus\IeC {\~a}o}}{45}{chapter.4}}
\@writefile{toc}{\contentsline {section}{\numberline {4.1}Trabalhos futuros}{45}{section.4.1}}
\citation{a1studmuffin}
\citation{motiontwin}
\citation{hellogames}
\citation{mandelbrotset}
\citation{lsystemtree}
\citation{sierpinski}
\citation{Association1988}
\citation{inproceedings}
\bibdata{abntex2-options,references}
\BKM@entry{id=60,dest={73656374696F6E2A2E3132},srcline={3}}{52656665725C3335326E63696173206269626C696F67725C3334316669636173}
\bibcite{Adam2014}{Adam, Haungs e Khosmood 2014}
\bibciteEXPL{Adam2014}{Adam, Haungs e Khosmood}
\bibciteIMPL{Adam2014}{ADAM; HAUNGS; KHOSMOOD}
\bibciteYEAR{Adam2014}{2014}
\bibcite{mandelbrotset}{Bourke 2002}
\bibciteEXPL{mandelbrotset}{Bourke}
\bibciteIMPL{mandelbrotset}{BOURKE}
\bibciteYEAR{mandelbrotset}{2002}
\bibcite{a1studmuffin}{Davies 2018}
\bibciteEXPL{a1studmuffin}{Davies}
\bibciteIMPL{a1studmuffin}{DAVIES}
\bibciteYEAR{a1studmuffin}{2018}
\bibcite{edwards2011}{Edwards 2011}
\bibciteEXPL{edwards2011}{Edwards}
\bibciteIMPL{edwards2011}{EDWARDS}
\bibciteYEAR{edwards2011}{2011}
\bibcite{inproceedings}{Farina et al. 2011}
\bibciteEXPL{inproceedings}{Farina et al.}
\bibciteIMPL{inproceedings}{FARINA et al.}
\bibciteYEAR{inproceedings}{2011}
\bibcite{FractalFoundation2009}{{FRACTAL FOUNDATION} 2009}
\bibciteEXPL{FractalFoundation2009}{{FRACTAL FOUNDATION}}
\bibciteIMPL{FractalFoundation2009}{{FRACTAL FOUNDATION}}
\bibciteYEAR{FractalFoundation2009}{2009}
\bibcite{Freiknecht2017}{Freiknecht e Effelsberg 2017}
\bibciteEXPL{Freiknecht2017}{Freiknecht e Effelsberg}
\bibciteIMPL{Freiknecht2017}{FREIKNECHT; EFFELSBERG}
\bibciteYEAR{Freiknecht2017}{2017}
\bibcite{Gupta2016}{Gupta, Jha e Prakash 2016}
\bibciteEXPL{Gupta2016}{Gupta, Jha e Prakash}
\bibciteIMPL{Gupta2016}{GUPTA; JHA; PRAKASH}
\bibciteYEAR{Gupta2016}{2016}
\bibcite{hellogames}{{HELLO GAMES} 2019}
\bibciteEXPL{hellogames}{{HELLO GAMES}}
\bibciteIMPL{hellogames}{{HELLO GAMES}}
\bibciteYEAR{hellogames}{2019}
\bibcite{Hendrikx2013}{Hendrikx et al. 2013}
\bibciteEXPL{Hendrikx2013}{Hendrikx et al.}
\bibciteIMPL{Hendrikx2013}{HENDRIKX et al.}
\bibciteYEAR{Hendrikx2013}{2013}
\bibcite{lsystemtree}{Houndini 2019}
\bibciteEXPL{lsystemtree}{Houndini}
\bibciteIMPL{lsystemtree}{HOUNDINI}
\bibciteYEAR{lsystemtree}{2019}
\bibcite{Association1988}{{INTERNATIONAL MIDI ASSOCIATION} 1988}
\bibciteEXPL{Association1988}{{INTERNATIONAL MIDI ASSOCIATION}}
\bibciteIMPL{Association1988}{{INTERNATIONAL MIDI ASSOCIATION}}
\bibciteYEAR{Association1988}{1988}
\bibcite{Jaques2016}{Jaques et al. 2016}
\bibciteEXPL{Jaques2016}{Jaques et al.}
\bibciteIMPL{Jaques2016}{JAQUES et al.}
\bibciteYEAR{Jaques2016}{2016}
\bibcite{Kathiresan2015}{Kathiresan 2015}
\bibciteEXPL{Kathiresan2015}{Kathiresan}
\bibciteIMPL{Kathiresan2015}{KATHIRESAN}
\bibciteYEAR{Kathiresan2015}{2015}
\bibcite{maletsky2013fractals}{Maletsky et al. 2013}
\bibciteEXPL{maletsky2013fractals}{Maletsky et al.}
\bibciteIMPL{maletsky2013fractals}{MALETSKY et al.}
\bibciteYEAR{maletsky2013fractals}{2013}
\bibcite{Manousakis2006}{Manousakis 2006}
\bibciteEXPL{Manousakis2006}{Manousakis}
\bibciteIMPL{Manousakis2006}{MANOUSAKIS}
\bibciteYEAR{Manousakis2006}{2006}
\bibcite{med1996teoria}{Med 1996}
\bibciteEXPL{med1996teoria}{Med}
\bibciteIMPL{med1996teoria}{MED}
\bibciteYEAR{med1996teoria}{1996}
\bibcite{meduna2014formal}{Meduna 2014}
\bibciteEXPL{meduna2014formal}{Meduna}
\bibciteIMPL{meduna2014formal}{MEDUNA}
\bibciteYEAR{meduna2014formal}{2014}
\@writefile{toc}{\setlength  {\cftchapterindent }{\cftlastnumwidth } \setlength  {\cftchapternumwidth }{2em}}
\@writefile{toc}{\contentsline {chapter}{\uppercase {Refer\^{e}ncias bibliogr\IeC {\'a}ficas}}{47}{section*.12}}
\bibcite{Forum2013}{{MIDI MANUFACTURERS ASSOCIATION} 2013}
\bibciteEXPL{Forum2013}{{MIDI MANUFACTURERS ASSOCIATION}}
\bibciteIMPL{Forum2013}{{MIDI MANUFACTURERS ASSOCIATION}}
\bibciteYEAR{Forum2013}{2013}
\bibcite{motiontwin}{{MOTION TWIN} 2019}
\bibciteEXPL{motiontwin}{{MOTION TWIN}}
\bibciteIMPL{motiontwin}{{MOTION TWIN}}
\bibciteYEAR{motiontwin}{2019}
\bibcite{Olsen2004}{Olsen 2004}
\bibciteEXPL{Olsen2004}{Olsen}
\bibciteIMPL{Olsen2004}{OLSEN}
\bibciteYEAR{Olsen2004}{2004}
\bibcite{sierpinski}{Phuong, Dao-Ngoc e Tuan 2013}
\bibciteEXPL{sierpinski}{Phuong, Dao-Ngoc e Tuan}
\bibciteIMPL{sierpinski}{PHUONG; DAO-NGOC; TUAN}
\bibciteYEAR{sierpinski}{2013}
\bibcite{portaudio}{{PORTAUDIO COMMUNITY} 2011}
\bibciteEXPL{portaudio}{{PORTAUDIO COMMUNITY}}
\bibciteIMPL{portaudio}{{PORTAUDIO COMMUNITY}}
\bibciteYEAR{portaudio}{2011}
\bibcite{Prusinkiewicz1986}{Prusinkiewicz 1986}
\bibciteEXPL{Prusinkiewicz1986}{Prusinkiewicz}
\bibciteIMPL{Prusinkiewicz1986}{PRUSINKIEWICZ}
\bibciteYEAR{Prusinkiewicz1986}{1986}
\bibcite{Lindenmayer1996}{Prusinkiewicz e Lindenmayer 1996}
\bibciteEXPL{Lindenmayer1996}{Prusinkiewicz e Lindenmayer}
\bibciteIMPL{Lindenmayer1996}{PRUSINKIEWICZ; LINDENMAYER}
\bibciteYEAR{Lindenmayer1996}{1996}
\bibcite{Sipser2007}{Sipser 2007}
\bibciteEXPL{Sipser2007}{Sipser}
\bibciteIMPL{Sipser2007}{SIPSER}
\bibciteYEAR{Sipser2007}{2007}
\bibcite{Smith2011}{Smith et al. 2011}
\bibciteEXPL{Smith2011}{Smith et al.}
\bibciteIMPL{Smith2011}{SMITH et al.}
\bibciteYEAR{Smith2011}{2011}
\@switch{AP\^ENDICE} 
\@writefile{toc}{\setlength  {\cftpartindent }{\cftlastnumwidth } \setlength  {\cftpartnumwidth }{2em}}
\@writefile{toc}{\cftinsert {A}}
\BKM@entry{id=61,dest={73656374696F6E2A2E3133},srcline={1212}}{41705C3335326E6469636573}
\@writefile{toc}{\contentsline {part}{\uppercase {Ap\^endices}}{49}{section*.13}}
\BKM@entry{id=62,dest={617070656E6469782E41},srcline={1214}}{4172717569766F73204D49444920726573756C74616E746573}
\@writefile{toc}{\setlength  {\cftchapterindent }{0em} \setlength  {\cftchapternumwidth }{\cftlastnumwidth }}
\@writefile{toc}{\setlength  {\cftchapterindent }{\cftlastnumwidth } \setlength  {\cftchapternumwidth }{2em}}
\@writefile{toc}{\cftinsert {A}}
\@writefile{toc}{\contentsline {appendix}{\chapternumberline {A}\MakeTextUppercase  {Arquivos MIDI resultantes}}{50}{appendix.A}}
\newlabel{LastPage}{{}{50}{}{page.50}{}}
\xdef\lastpage@lastpage{50}
\xdef\lastpage@lastpageHy{50}
\bibstyle{abntex2-alf}
\memsetcounter{lastsheet}{51}
\memsetcounter{lastpage}{50}
